<?xml version="1.0" encoding="UTF-8"?>
<svg width="74px" height="70px" viewBox="0 0 74 70" version="1.1" xmlns="http://www.w3.org/2000/svg" xmlns:xlink="http://www.w3.org/1999/xlink">
    <title>Artboard</title>
    <g id="Artboard" stroke="none" stroke-width="1" fill="none" fill-rule="evenodd">
        <path d="M26.4958286,53.9073714 C27.1575429,55.5839429 27.4889714,57.4593714 27.4889714,59.5330857 C27.4889714,61.3719429 27.1872571,63.0708 26.5844,64.6290857 L26.5844,66.3062286 L29.7169714,66.3062286 C30.3489714,64.8942286 30.6655429,62.6582286 30.6655429,59.5993714 C30.6655429,57.6285143 30.2541143,55.7308 29.4301143,53.9073714 L26.4958286,53.9073714 Z M12.5969714,59.1805143 C13.7004,57.8268 14.3398286,56.3930857 14.5169714,54.8782286 L11.2958286,59.1805143 L12.5969714,59.1805143 Z M24.2232571,54.5473714 C23.5318286,54.5473714 23.0181143,54.4296571 22.6792571,54.1942286 L17.8918286,50.7302286 L15.5975429,53.6650857 C15.5975429,56.0622286 15.0461143,57.8782286 13.9426857,59.1136571 C14.7809714,59.0845143 15.7815429,58.7610857 16.9432571,58.1433714 C17.1495429,58.3342286 17.2524,58.5925143 17.2524,58.9153714 C17.2524,59.1805143 17.0095429,59.4308 16.5238286,59.6656571 C15.4066857,60.2388 13.9946857,60.5256571 12.2884,60.5256571 C11.4638286,60.5256571 10.8906857,60.5336571 10.5678286,60.5479429 C11.0232571,61.1216571 11.2512571,61.9302286 11.2512571,62.9748 C11.2512571,63.6068 11.1192571,64.2542286 10.8541143,64.9165143 C12.3689714,64.9165143 13.6198286,64.8199429 14.6049714,64.6290857 C15.4432571,64.4668 16.3552571,64.3868 17.3404,64.3868 C17.8701143,64.3868 18.7741143,64.4748 20.0535429,64.6513714 C20.6575429,64.7399429 21.2672571,64.7839429 21.8849714,64.7839429 C22.5769714,64.7839429 23.8341143,64.5113714 25.6575429,63.9673714 C26.2164,62.5702286 26.4958286,61.0850857 26.4958286,59.5113714 C26.4958286,57.9525143 26.1644,56.2462286 25.5032571,54.3925143 C25.1798286,54.4953714 24.7529714,54.5473714 24.2232571,54.5473714 L24.2232571,54.5473714 Z M9.5084,60.8348 C8.02268571,61.2176571 7.2804,61.8793714 7.2804,62.8199429 C7.2804,63.5119429 7.59697143,64.0776571 8.22897143,64.5188 C8.6404,64.8130857 9.13354286,64.9822286 9.70725714,65.0262286 C10.0158286,64.3502286 10.1706857,63.5999429 10.1706857,62.7765143 C10.1706857,61.9965143 9.94954286,61.3496571 9.5084,60.8348 L9.5084,60.8348 Z M6.81697143,60.7908 C7.25811429,60.2468 7.67754286,59.1576571 8.07468571,57.5256571 C8.17697143,57.0982286 8.26554286,56.7753714 8.33982857,56.5548 L14.9575429,48.3479429 L14.2518286,47.6862286 C14.0312571,47.4799429 13.7146857,47.3770857 13.3032571,47.3770857 C12.1261143,47.3770857 9.97982857,49.0902286 6.86097143,52.5176571 C6.15525714,53.2976571 5.57411429,54.5028 5.11811429,56.1353714 L4.72154286,57.5696571 C5.33925714,58.4662286 5.64782857,59.2022286 5.64782857,59.7759429 C5.64782857,61.0850857 5.36097143,62.0039429 4.78725714,62.5336571 C5.31697143,62.4010857 5.99297143,61.8199429 6.81697143,60.7908 L6.81697143,60.7908 Z M3.41982857,62.2468 C3.78668571,62.2908 4.10325714,62.0262286 4.3684,61.4525143 C4.55868571,60.9965143 4.65525714,60.5399429 4.65525714,60.0845143 C4.65525714,59.6136571 4.5524,59.2610857 4.34611429,59.0262286 L3.41982857,62.2468 Z M3.17697143,64.9165143 L2.20611429,67.0999429 L4.05925714,66.2176571 C3.97125714,65.6885143 3.6764,65.2548 3.17697143,64.9165143 L3.17697143,64.9165143 Z M21.8186857,65.9308 C21.2009714,65.9308 20.1718286,65.8285143 18.7301143,65.6222286 C18.0986857,65.5485143 17.5912571,65.5119429 17.2084,65.5119429 C16.7084,65.5119429 15.4649714,65.6296571 13.4798286,65.8645143 C12.4946857,65.9828 11.7884,66.0410857 11.3615429,66.0410857 L9.3764,66.0410857 C8.28725714,66.0410857 7.49297143,65.6079429 6.99354286,64.7399429 L5.22897143,66.9239429 L-0.000171428571,69.4605143 L2.55925714,63.5485143 C2.47125714,63.2833714 2.42668571,62.9165143 2.42668571,62.4450857 C2.42668571,62.0622286 2.52268571,61.5262286 2.71354286,60.8348 L4.08154286,55.7165143 C4.44897143,54.3342286 4.80211429,53.3925143 5.1404,52.8925143 C6.3764,51.0690857 7.80211429,49.5028 9.4204,48.1936571 C10.2729714,47.5022286 11.1409714,46.9662286 12.0232571,46.5833714 C12.4792571,46.3925143 12.9421143,46.2959429 13.4135429,46.2959429 C14.1049714,46.2959429 14.8615429,46.6788 15.6861143,47.4433714 L18.7084,43.6708 C19.3112571,42.9353714 20.0021143,42.5679429 20.7821143,42.5679429 C21.2672571,42.5679429 21.7084,42.9793714 22.1055429,43.8033714 C22.2821143,44.1708 22.3701143,44.5679429 22.3701143,44.9942286 L18.5975429,49.8256571 L22.6569714,52.8045143 C23.2306857,53.2313714 23.7821143,53.4439429 24.3118286,53.4439429 C25.0324,53.4439429 25.4289714,53.2239429 25.5032571,52.7822286 L29.9815429,52.7822286 C31.1586857,54.7090857 31.7461143,56.9959429 31.7461143,59.6439429 C31.7461143,62.6879429 31.3352571,65.3056571 30.5112571,67.4970857 L25.5912571,67.4970857 L25.5912571,65.1148 C24.1495429,65.6582286 22.8918286,65.9308 21.8186857,65.9308 L21.8186857,65.9308 Z" id="Fill-5" fill="#CCCCCC"></path>
        <path d="M57.3891949,9.83494485 L57.3891949,20.6279904 L68.2092283,20.6279904 L68.2092283,23.4381043 L57.3891949,23.4381043 L57.3891949,34.2311498 L54.6108051,34.2311498 L54.6108051,23.4381043 L43.7899631,23.4381043 L43.7899631,20.6279904 L54.6108051,20.6279904 L54.6108051,9.83494485 L57.3891949,9.83494485 Z M56.0088947,9.05778746 C54.2420781,9.05778746 52.58685,9.38245041 51.0407844,10.0332289 C49.5197857,10.6716601 48.1330166,11.6202279 46.8820943,12.8760271 C45.5931672,14.1434473 44.6365796,15.5372464 44.0115227,17.0581506 C43.3856572,18.5783286 43.0727245,20.2372327 43.0727245,22.0334105 C43.0727245,23.785283 43.3856572,25.4216714 44.0115227,26.9425757 C44.6365796,28.4627536 45.5931672,29.857279 46.8820943,31.1239729 C48.1330166,32.3804984 49.5197857,33.3283399 51.0407844,33.9674974 C52.58685,34.6175496 54.2420781,34.9422125 56.0088947,34.9422125 C57.7757113,34.9422125 59.4317481,34.6175496 60.9770051,33.9674974 C62.4866832,33.3283399 63.8726437,32.3804984 65.1365038,31.1239729 C66.4124931,29.857279 67.3626118,28.4627536 67.9884773,26.9425757 C68.6143428,25.4216714 68.9272755,23.785283 68.9272755,22.0334105 C68.9272755,20.2372327 68.6143428,18.5783286 67.9884773,17.0581506 C67.3626118,15.5372464 66.4124931,14.1434473 65.1365038,12.8760271 C63.8726437,11.6202279 62.4866832,10.6716601 60.9770051,10.0332289 C59.4317481,9.38245041 57.7757113,9.05778746 56.0088947,9.05778746 L56.0088947,9.05778746 Z M49.7526659,7.29792546 C51.7151665,6.43215761 53.7981503,6 56,6 C58.2010411,6 60.2444029,6.39729448 62.1276596,7.18970448 C64.0109163,7.98356712 65.7373023,9.15729266 67.3076262,10.7108811 C68.8779502,12.2753643 70.0560974,14.0061737 70.8404508,15.9011303 C71.6134836,17.7750238 72,19.8181488 72,22.0334105 C72,24.204367 71.6134836,26.2373235 70.8404508,28.1322802 C70.0560974,30.0061737 68.8779502,31.7246357 67.3076262,33.2891189 C65.7373023,34.8434337 64.0109163,36.0164329 62.1276596,36.8102955 C60.2444029,37.6034318 58.2010411,38 56,38 C53.7981503,38 51.7555971,37.6034318 49.8723404,36.8102955 C47.9882751,36.0164329 46.2626977,34.8434337 44.6923738,33.2891189 C43.1212412,31.7246357 41.943094,30.0061737 41.1587406,28.1322802 C40.3857078,26.2373235 40,24.204367 40,22.0334105 C40,19.8181488 40.3857078,17.7750238 41.1587406,15.9011303 C41.943094,14.0061737 43.1212412,12.2753643 44.6923738,10.7108811 C46.1025926,9.30037678 47.7901653,8.162967 49.7526659,7.29792546 L49.7526659,7.29792546 Z" id="Fill-1-Copy-2" fill="#CCCCCC"></path>
    </g>
</svg>