<?xml version="1.0" encoding="UTF-8"?>
<svg width="195px" height="31px" viewBox="0 0 195 31" version="1.1" xmlns="http://www.w3.org/2000/svg" xmlns:xlink="http://www.w3.org/1999/xlink">
    <title>stroke-7</title>
    <g id="Page-1" stroke="none" stroke-width="1" fill="none" fill-rule="evenodd" stroke-dasharray="0,5.789" stroke-linecap="round" stroke-linejoin="round">
        <g id="v" transform="translate(-44.000000, -296.000000)" stroke="#1D1D1B" stroke-width="2">
            <path d="M45,312.4997 L45,312.4997 L50.579,311.6147 C80.989,306.8807 225.794,285.5527 236.719,306.8827 L237.37,309.6037 L236.052,315.0547 C228.23,329.8787 188.082,327.8687 181.507,318.7287 L180.596,316.0957 L182.146,310.5977 C186.785,303.1407 200.81,301.4487 210.114,311.0607 L212,313.2537" id="stroke-7"></path>
        </g>
    </g>
</svg>