<?xml version="1.0" encoding="UTF-8"?>
<svg width="191px" height="30px" viewBox="0 0 191 30" version="1.1" xmlns="http://www.w3.org/2000/svg" xmlns:xlink="http://www.w3.org/1999/xlink">
    <title>stroke-4</title>
    <g id="Page-1" stroke="none" stroke-width="1" fill="none" fill-rule="evenodd" stroke-dasharray="0,5.482" stroke-linecap="round" stroke-linejoin="round">
        <g id="v" transform="translate(-44.000000, -132.000000)" stroke="#1D1D1B" stroke-width="2">
            <path d="M45.9356,146.3122 L45.9356,146.3122 L51.2916,145.1562 C74.8396,140.1792 166.9406,121.9242 143.1706,146.1852 L141.1826,148.0722 L137.3686,151.9992 C120.1246,173.8022 235.5716,146.2212 235.5716,146.2212" id="stroke-4"></path>
        </g>
    </g>
</svg>