<?xml version="1.0" encoding="UTF-8"?>
<svg width="191px" height="14px" viewBox="0 0 191 14" version="1.1" xmlns="http://www.w3.org/2000/svg" xmlns:xlink="http://www.w3.org/1999/xlink">
    <title>stroke-2</title>
    <g id="Page-1" stroke="none" stroke-width="1" fill="none" fill-rule="evenodd" stroke-dasharray="0,5.631" stroke-linecap="round" stroke-linejoin="round">
        <g id="v" transform="translate(-45.000000, -45.000000)" stroke="#1D1D1B" stroke-width="2">
            <path d="M46.7993,51.2116 L52.1953,49.9166 C63.0613,47.5436 87.9243,43.3286 104.2343,50.0486 L111.7993,53.0986 C129.9443,57.7866 159.8963,38.9046 183.4413,49.9696 L191.0073,53.7896 C209.9253,61.9416 226.7963,55.5866 233.0243,52.5726 L235.5713,51.2116" id="stroke-2"></path>
        </g>
    </g>
</svg>