<?xml version="1.0" encoding="UTF-8"?>
<svg width="190px" height="2px" viewBox="0 0 190 2" version="1.1" xmlns="http://www.w3.org/2000/svg" xmlns:xlink="http://www.w3.org/1999/xlink">
    <title>stroke-1</title>
    <g id="Page-1" stroke="none" stroke-width="1" fill="none" fill-rule="evenodd" stroke-dasharray="0,5.631" stroke-linecap="round" stroke-linejoin="round">
        <g id="v" transform="translate(-44.000000, -21.000000)" stroke="#1D1D1B" stroke-width="2">
            <line x1="45.8706" y1="21.9997" x2="236.5006" y2="21.9997" id="stroke-1"></line>
        </g>
    </g>
</svg>