<!-- Generated by IcoMoon.io -->
<svg version="1.1" xmlns="http://www.w3.org/2000/svg" width="32" height="32" viewBox="0 0 32 32">
<title>directory</title>
<path d="M32 17.435h-1.288c-0.081-0.607-0.297-1.063-0.65-1.366-0.351-0.303-0.848-0.455-1.487-0.455-0.624 0-1.109 0.15-1.457 0.449s-0.57 0.758-0.668 1.372h-1.288c0.074-1.158 0.397-2.028 0.972-2.611s1.39-0.874 2.447-0.874c1.056 0 1.872 0.291 2.447 0.874s0.899 1.454 0.972 2.611zM28.32 25.887h-1.287c-0.081-0.607-0.298-1.062-0.65-1.366s-0.848-0.455-1.487-0.455c-0.624 0-1.112 0.15-1.464 0.449s-0.573 0.757-0.662 1.372h-1.287c0.065-1.157 0.387-2.028 0.966-2.611s1.397-0.874 2.453-0.874c1.057 0 1.872 0.291 2.447 0.874s0.899 1.454 0.971 2.611zM28.32 8.983h-1.287c-0.081-0.608-0.298-1.063-0.65-1.366s-0.848-0.456-1.487-0.456c-0.624 0-1.112 0.15-1.464 0.449s-0.573 0.757-0.662 1.373h-1.287c0.065-1.158 0.387-2.028 0.966-2.611s1.397-0.874 2.453-0.874c1.057 0 1.872 0.291 2.447 0.874s0.899 1.454 0.971 2.611zM19.418 29.397h-1.287c-0.081-0.607-0.298-1.063-0.65-1.366s-0.844-0.455-1.475-0.455c-0.632 0-1.122 0.15-1.469 0.449s-0.571 0.757-0.668 1.372h-1.287c0.073-1.158 0.396-2.028 0.971-2.611s1.391-0.874 2.447-0.874 1.872 0.291 2.447 0.874c0.575 0.583 0.899 1.453 0.971 2.611zM19.418 5.485h-1.287c-0.081-0.607-0.298-1.063-0.65-1.366-0.353-0.304-0.844-0.456-1.475-0.456s-1.122 0.15-1.469 0.449c-0.348 0.3-0.571 0.758-0.668 1.372h-1.287c0.073-1.158 0.396-2.028 0.971-2.611s1.391-0.874 2.447-0.874 1.872 0.291 2.447 0.874c0.575 0.583 0.899 1.453 0.971 2.611zM10.529 25.887h-1.287c-0.081-0.607-0.3-1.062-0.657-1.366-0.356-0.303-0.849-0.455-1.481-0.455-0.624 0-1.111 0.15-1.464 0.449s-0.577 0.757-0.674 1.372h-1.287c0.072-1.157 0.399-2.028 0.977-2.611s1.395-0.874 2.447-0.874 1.868 0.291 2.447 0.874c0.578 0.583 0.904 1.454 0.977 2.611zM10.529 8.983h-1.287c-0.081-0.608-0.3-1.063-0.657-1.366-0.356-0.304-0.849-0.456-1.481-0.456-0.624 0-1.111 0.15-1.464 0.449s-0.577 0.757-0.674 1.373h-1.287c0.072-1.158 0.399-2.028 0.977-2.611s1.395-0.874 2.447-0.874c1.052 0 1.868 0.291 2.447 0.874 0.578 0.583 0.904 1.454 0.977 2.611zM6.838 17.435h-1.288c-0.080-0.607-0.297-1.063-0.649-1.366s-0.844-0.455-1.476-0.455c-0.631 0-1.122 0.15-1.469 0.449s-0.57 0.758-0.668 1.372h-1.287c0.073-1.158 0.397-2.028 0.972-2.611s1.391-0.874 2.447-0.874c1.056 0 1.872 0.291 2.447 0.874s0.899 1.454 0.972 2.611z"></path>
</svg>
