<!-- Generated by IcoMoon.io -->
<svg version="1.1" xmlns="http://www.w3.org/2000/svg" width="32" height="32" viewBox="0 0 32 32">
<title>pdf</title>
<path d="M4.577 30.247h3.154v-28.495h-3.154v28.495zM3 0h10.094v1.753h-3.785v28.495h3.785v1.753h-10.094v-32z"></path>
<path d="M24.070 30.247h3.154v-28.495h-3.154v28.495zM28.801 0v32h-10.094v-1.753h3.785v-28.495h-3.785v-1.753h10.094z"></path>
</svg>
